{
  "success": true,
  "data": {
    "photos": {
      "page": 1,
      "pages": 55,
      "perpage": 100,
      "total": "5415",
      "photo": [
        {
          "id": "39602353711",
          "owner": "155527249@N02",
          "secret": "4feb06b4ae",
          "server": "4612",
          "farm": 5,
          "title": "Iced Hills",
          "ispublic": 1,
          "isfriend": null,
          "isfamily": null
        },
        {
          "id": "38736853944",
          "owner": "152274542@N06",
          "secret": "d7ffc9bb24",
          "server": "4599",
          "farm": 5,
          "title": "The Hill Top Hike",
          "ispublic": 1,
          "isfriend": null,
          "isfamily": null
        },
        {
          "id": "25548443648",
          "owner": "87857621@N00",
          "secret": "212a6f417e",
          "server": "4598",
          "farm": 5,
          "title": "AC833 BRU-YUL",
          "ispublic": 1,
          "isfriend": null,
          "isfamily": null
        },
        {
          "id": "24532076857",
          "owner": "159468158@N08",
          "secret": "72d7b99f4a",
          "server": "4732",
          "farm": 5,
          "title": "Old Factory.",
          "ispublic": 1,
          "isfriend": null,
          "isfamily": null
        },
        {
          "id": "39367492802",
          "owner": "159468158@N08",
          "secret": "16efea205e",
          "server": "4690",
          "farm": 5,
          "title": "Rural Decay.",
          "ispublic": 1,
          "isfriend": null,
          "isfamily": null
        },
        {
          "id": "39397740471",
          "owner": "159468158@N08",
          "secret": "0d483accbf",
          "server": "4637",
          "farm": 5,
          "title": "Rusty Tank.",
          "ispublic": 1,
          "isfriend": null,
          "isfamily": null
        },
        {
          "id": "39367467322",
          "owner": "159468158@N08",
          "secret": "2a4f566283",
          "server": "4589",
          "farm": 5,
          "title": "Old House Place.",
          "ispublic": 1,
          "isfriend": null,
          "isfamily": null
        },
        {
          "id": "38679529994",
          "owner": "137257220@N08",
          "secret": "aeeb424fa7",
          "server": "4642",
          "farm": 5,
          "title": "Airplane Track",
          "ispublic": 1,
          "isfriend": null,
          "isfamily": null
        },
        {
          "id": "38492540915",
          "owner": "137257220@N08",
          "secret": "8dcdfc85a0",
          "server": "4639",
          "farm": 5,
          "title": "Far Away Alps",
          "ispublic": 1,
          "isfriend": null,
          "isfamily": null
        },
        {
          "id": "39325521752",
          "owner": "14040482@N04",
          "secret": "f99fbf1d55",
          "server": "4736",
          "farm": 5,
          "title": null,
          "ispublic": 1,
          "isfriend": null,
          "isfamily": null
        },
        {
          "id": "39354672061",
          "owner": "14040482@N04",
          "secret": "4cb8daafe2",
          "server": "4686",
          "farm": 5,
          "title": null,
          "ispublic": 1,
          "isfriend": null,
          "isfamily": null
        },
        {
          "id": "24490797477",
          "owner": "14040482@N04",
          "secret": "6841e449b7",
          "server": "4634",
          "farm": 5,
          "title": null,
          "ispublic": 1,
          "isfriend": null,
          "isfamily": null
        },
        {
          "id": "39354669351",
          "owner": "14040482@N04",
          "secret": "a9c07fb616",
          "server": "4597",
          "farm": 5,
          "title": null,
          "ispublic": 1,
          "isfriend": null,
          "isfamily": null
        },
        {
          "id": "27578297179",
          "owner": "14040482@N04",
          "secret": "726aed4588",
          "server": "4589",
          "farm": 5,
          "title": null,
          "ispublic": 1,
          "isfriend": null,
          "isfamily": null
        },
        {
          "id": "38477627065",
          "owner": "14040482@N04",
          "secret": "c5335c3620",
          "server": "4642",
          "farm": 5,
          "title": null,
          "ispublic": 1,
          "isfriend": null,
          "isfamily": null
        },
        {
          "id": "27578294149",
          "owner": "14040482@N04",
          "secret": "4e6d3bbd48",
          "server": "4634",
          "farm": 5,
          "title": null,
          "ispublic": 1,
          "isfriend": null,
          "isfamily": null
        },
        {
          "id": "38477624715",
          "owner": "14040482@N04",
          "secret": "53f611dd46",
          "server": "4680",
          "farm": 5,
          "title": null,
          "ispublic": 1,
          "isfriend": null,
          "isfamily": null
        },
        {
          "id": "27578291599",
          "owner": "14040482@N04",
          "secret": "8a313f7346",
          "server": "4600",
          "farm": 5,
          "title": null,
          "ispublic": 1,
          "isfriend": null,
          "isfamily": null
        },
        {
          "id": "38477622925",
          "owner": "14040482@N04",
          "secret": "18bbb04598",
          "server": "4681",
          "farm": 5,
          "title": null,
          "ispublic": 1,
          "isfriend": null,
          "isfamily": null
        },
        {
          "id": "38477621735",
          "owner": "14040482@N04",
          "secret": "70a8116725",
          "server": "4687",
          "farm": 5,
          "title": null,
          "ispublic": 1,
          "isfriend": null,
          "isfamily": null
        },
        {
          "id": "27578285749",
          "owner": "14040482@N04",
          "secret": "8bf731e0ab",
          "server": "4683",
          "farm": 5,
          "title": null,
          "ispublic": 1,
          "isfriend": null,
          "isfamily": null
        },
        {
          "id": "38477615235",
          "owner": "14040482@N04",
          "secret": "c12fd9f8a0",
          "server": "4680",
          "farm": 5,
          "title": null,
          "ispublic": 1,
          "isfriend": null,
          "isfamily": null
        },
        {
          "id": "38477613045",
          "owner": "14040482@N04",
          "secret": "503e0be74c",
          "server": "4689",
          "farm": 5,
          "title": null,
          "ispublic": 1,
          "isfriend": null,
          "isfamily": null
        },
        {
          "id": "38477611205",
          "owner": "14040482@N04",
          "secret": "28072a02df",
          "server": "4728",
          "farm": 5,
          "title": null,
          "ispublic": 1,
          "isfriend": null,
          "isfamily": null
        },
        {
          "id": "38647024124",
          "owner": "14040482@N04",
          "secret": "54f5b8462e",
          "server": "4597",
          "farm": 5,
          "title": null,
          "ispublic": 1,
          "isfriend": null,
          "isfamily": null
        },
        {
          "id": "38477604695",
          "owner": "14040482@N04",
          "secret": "36cdb44dd1",
          "server": "4687",
          "farm": 5,
          "title": null,
          "ispublic": 1,
          "isfriend": null,
          "isfamily": null
        },
        {
          "id": "25485948138",
          "owner": "14040482@N04",
          "secret": "0877e0ccf9",
          "server": "4688",
          "farm": 5,
          "title": null,
          "ispublic": 1,
          "isfriend": null,
          "isfamily": null
        },
        {
          "id": "27578278309",
          "owner": "14040482@N04",
          "secret": "2a295e09c9",
          "server": "4641",
          "farm": 5,
          "title": null,
          "ispublic": 1,
          "isfriend": null,
          "isfamily": null
        },
        {
          "id": "38477596495",
          "owner": "14040482@N04",
          "secret": "de08f0c9c4",
          "server": "4644",
          "farm": 5,
          "title": null,
          "ispublic": 1,
          "isfriend": null,
          "isfamily": null
        },
        {
          "id": "27578275969",
          "owner": "14040482@N04",
          "secret": "59859f8487",
          "server": "4643",
          "farm": 5,
          "title": null,
          "ispublic": 1,
          "isfriend": null,
          "isfamily": null
        },
        {
          "id": "38477588335",
          "owner": "14040482@N04",
          "secret": "925d8031f2",
          "server": "4737",
          "farm": 5,
          "title": null,
          "ispublic": 1,
          "isfriend": null,
          "isfamily": null
        },
        {
          "id": "38477584155",
          "owner": "14040482@N04",
          "secret": "bc085c3455",
          "server": "4737",
          "farm": 5,
          "title": null,
          "ispublic": 1,
          "isfriend": null,
          "isfamily": null
        },
        {
          "id": "39325487262",
          "owner": "14040482@N04",
          "secret": "e70f565c0a",
          "server": "4592",
          "farm": 5,
          "title": null,
          "ispublic": 1,
          "isfriend": null,
          "isfamily": null
        },
        {
          "id": "27578259229",
          "owner": "14040482@N04",
          "secret": "78bd4cc2a7",
          "server": "4738",
          "farm": 5,
          "title": null,
          "ispublic": 1,
          "isfriend": null,
          "isfamily": null
        },
        {
          "id": "38477572295",
          "owner": "14040482@N04",
          "secret": "2d7b44c3fc",
          "server": "4591",
          "farm": 5,
          "title": null,
          "ispublic": 1,
          "isfriend": null,
          "isfamily": null
        },
        {
          "id": "27578250169",
          "owner": "14040482@N04",
          "secret": "c0291b2bd4",
          "server": "4682",
          "farm": 5,
          "title": null,
          "ispublic": 1,
          "isfriend": null,
          "isfamily": null
        },
        {
          "id": "38477568145",
          "owner": "14040482@N04",
          "secret": "939d598d05",
          "server": "4683",
          "farm": 5,
          "title": null,
          "ispublic": 1,
          "isfriend": null,
          "isfamily": null
        },
        {
          "id": "39325469732",
          "owner": "14040482@N04",
          "secret": "6051077bbb",
          "server": "4593",
          "farm": 5,
          "title": null,
          "ispublic": 1,
          "isfriend": null,
          "isfamily": null
        },
        {
          "id": "38477567215",
          "owner": "14040482@N04",
          "secret": "60a892a50f",
          "server": "4646",
          "farm": 5,
          "title": null,
          "ispublic": 1,
          "isfriend": null,
          "isfamily": null
        },
        {
          "id": "27578240059",
          "owner": "14040482@N04",
          "secret": "4d5de9a20b",
          "server": "4736",
          "farm": 5,
          "title": null,
          "ispublic": 1,
          "isfriend": null,
          "isfamily": null
        },
        {
          "id": "38477565305",
          "owner": "14040482@N04",
          "secret": "234f0710d6",
          "server": "4601",
          "farm": 5,
          "title": null,
          "ispublic": 1,
          "isfriend": null,
          "isfamily": null
        },
        {
          "id": "27578233439",
          "owner": "14040482@N04",
          "secret": "89f6793a4e",
          "server": "4738",
          "farm": 5,
          "title": null,
          "ispublic": 1,
          "isfriend": null,
          "isfamily": null
        },
        {
          "id": "38477564015",
          "owner": "14040482@N04",
          "secret": "54d1396464",
          "server": "4635",
          "farm": 5,
          "title": null,
          "ispublic": 1,
          "isfriend": null,
          "isfamily": null
        },
        {
          "id": "27578229049",
          "owner": "14040482@N04",
          "secret": "44ac499eb1",
          "server": "4688",
          "farm": 5,
          "title": null,
          "ispublic": 1,
          "isfriend": null,
          "isfamily": null
        },
        {
          "id": "38646987554",
          "owner": "14040482@N04",
          "secret": "ee01edc7b6",
          "server": "4599",
          "farm": 5,
          "title": null,
          "ispublic": 1,
          "isfriend": null,
          "isfamily": null
        },
        {
          "id": "39354604241",
          "owner": "14040482@N04",
          "secret": "6cdc4c594f",
          "server": "4727",
          "farm": 5,
          "title": null,
          "ispublic": 1,
          "isfriend": null,
          "isfamily": null
        },
        {
          "id": "38646984004",
          "owner": "14040482@N04",
          "secret": "b539e232de",
          "server": "4681",
          "farm": 5,
          "title": null,
          "ispublic": 1,
          "isfriend": null,
          "isfamily": null
        },
        {
          "id": "38646982204",
          "owner": "14040482@N04",
          "secret": "86f76e4d83",
          "server": "4599",
          "farm": 5,
          "title": null,
          "ispublic": 1,
          "isfriend": null,
          "isfamily": null
        },
        {
          "id": "38646980214",
          "owner": "14040482@N04",
          "secret": "305b9cee1d",
          "server": "4641",
          "farm": 5,
          "title": null,
          "ispublic": 1,
          "isfriend": null,
          "isfamily": null
        },
        {
          "id": "38646977334",
          "owner": "14040482@N04",
          "secret": "58bfed7f60",
          "server": "4639",
          "farm": 5,
          "title": null,
          "ispublic": 1,
          "isfriend": null,
          "isfamily": null
        },
        {
          "id": "39354584221",
          "owner": "14040482@N04",
          "secret": "89e9464fd5",
          "server": "4682",
          "farm": 5,
          "title": null,
          "ispublic": 1,
          "isfriend": null,
          "isfamily": null
        },
        {
          "id": "39354581111",
          "owner": "14040482@N04",
          "secret": "aae76ee8e2",
          "server": "4735",
          "farm": 5,
          "title": null,
          "ispublic": 1,
          "isfriend": null,
          "isfamily": null
        },
        {
          "id": "39354578121",
          "owner": "14040482@N04",
          "secret": "c1f792be42",
          "server": "4589",
          "farm": 5,
          "title": null,
          "ispublic": 1,
          "isfriend": null,
          "isfamily": null
        },
        {
          "id": "39354575041",
          "owner": "14040482@N04",
          "secret": "fe40d4d78f",
          "server": "4693",
          "farm": 5,
          "title": null,
          "ispublic": 1,
          "isfriend": null,
          "isfamily": null
        },
        {
          "id": "38646963274",
          "owner": "14040482@N04",
          "secret": "c01bfcabc9",
          "server": "4641",
          "farm": 5,
          "title": null,
          "ispublic": 1,
          "isfriend": null,
          "isfamily": null
        },
        {
          "id": "39325422482",
          "owner": "14040482@N04",
          "secret": "c0d7599223",
          "server": "4681",
          "farm": 5,
          "title": null,
          "ispublic": 1,
          "isfriend": null,
          "isfamily": null
        },
        {
          "id": "39354565821",
          "owner": "14040482@N04",
          "secret": "eb8397d7ea",
          "server": "4682",
          "farm": 5,
          "title": null,
          "ispublic": 1,
          "isfriend": null,
          "isfamily": null
        },
        {
          "id": "39354562471",
          "owner": "14040482@N04",
          "secret": "2fe5d86587",
          "server": "4730",
          "farm": 5,
          "title": null,
          "ispublic": 1,
          "isfriend": null,
          "isfamily": null
        },
        {
          "id": "38646954034",
          "owner": "14040482@N04",
          "secret": "37f6b3107e",
          "server": "4599",
          "farm": 5,
          "title": null,
          "ispublic": 1,
          "isfriend": null,
          "isfamily": null
        },
        {
          "id": "24490687447",
          "owner": "14040482@N04",
          "secret": "781680d22c",
          "server": "4597",
          "farm": 5,
          "title": null,
          "ispublic": 1,
          "isfriend": null,
          "isfamily": null
        },
        {
          "id": "39354554471",
          "owner": "14040482@N04",
          "secret": "a5960bccae",
          "server": "4597",
          "farm": 5,
          "title": null,
          "ispublic": 1,
          "isfriend": null,
          "isfamily": null
        },
        {
          "id": "39354552041",
          "owner": "14040482@N04",
          "secret": "9dbfd0746c",
          "server": "4633",
          "farm": 5,
          "title": null,
          "ispublic": 1,
          "isfriend": null,
          "isfamily": null
        },
        {
          "id": "24490673347",
          "owner": "14040482@N04",
          "secret": "fa0110c053",
          "server": "4687",
          "farm": 5,
          "title": null,
          "ispublic": 1,
          "isfriend": null,
          "isfamily": null
        },
        {
          "id": "39325405722",
          "owner": "14040482@N04",
          "secret": "483697bfc6",
          "server": "4644",
          "farm": 5,
          "title": null,
          "ispublic": 1,
          "isfriend": null,
          "isfamily": null
        },
        {
          "id": "24490666737",
          "owner": "14040482@N04",
          "secret": "7be89efaac",
          "server": "4599",
          "farm": 5,
          "title": null,
          "ispublic": 1,
          "isfriend": null,
          "isfamily": null
        },
        {
          "id": "39354544741",
          "owner": "14040482@N04",
          "secret": "ac15edd9ff",
          "server": "4646",
          "farm": 5,
          "title": null,
          "ispublic": 1,
          "isfriend": null,
          "isfamily": null
        },
        {
          "id": "24490661517",
          "owner": "14040482@N04",
          "secret": "bd15a5ac64",
          "server": "4691",
          "farm": 5,
          "title": null,
          "ispublic": 1,
          "isfriend": null,
          "isfamily": null
        },
        {
          "id": "39354540821",
          "owner": "14040482@N04",
          "secret": "c325c81fd8",
          "server": "4726",
          "farm": 5,
          "title": null,
          "ispublic": 1,
          "isfriend": null,
          "isfamily": null
        },
        {
          "id": "39325391952",
          "owner": "14040482@N04",
          "secret": "ee7c0254b9",
          "server": "4647",
          "farm": 5,
          "title": null,
          "ispublic": 1,
          "isfriend": null,
          "isfamily": null
        },
        {
          "id": "39354535011",
          "owner": "14040482@N04",
          "secret": "e88108f488",
          "server": "4688",
          "farm": 5,
          "title": null,
          "ispublic": 1,
          "isfriend": null,
          "isfamily": null
        },
        {
          "id": "38646919984",
          "owner": "14040482@N04",
          "secret": "3f362cdcdf",
          "server": "4641",
          "farm": 5,
          "title": null,
          "ispublic": 1,
          "isfriend": null,
          "isfamily": null
        },
        {
          "id": "39354529551",
          "owner": "14040482@N04",
          "secret": "71c749f379",
          "server": "4692",
          "farm": 5,
          "title": null,
          "ispublic": 1,
          "isfriend": null,
          "isfamily": null
        },
        {
          "id": "38646914434",
          "owner": "14040482@N04",
          "secret": "f27a1665c7",
          "server": "4639",
          "farm": 5,
          "title": null,
          "ispublic": 1,
          "isfriend": null,
          "isfamily": null
        },
        {
          "id": "25485848558",
          "owner": "14040482@N04",
          "secret": "9f2a71cc4a",
          "server": "4738",
          "farm": 5,
          "title": null,
          "ispublic": 1,
          "isfriend": null,
          "isfamily": null
        },
        {
          "id": "38646906924",
          "owner": "14040482@N04",
          "secret": "46ebed432f",
          "server": "4590",
          "farm": 5,
          "title": null,
          "ispublic": 1,
          "isfriend": null,
          "isfamily": null
        },
        {
          "id": "25485844448",
          "owner": "14040482@N04",
          "secret": "6740200d5f",
          "server": "4598",
          "farm": 5,
          "title": null,
          "ispublic": 1,
          "isfriend": null,
          "isfamily": null
        },
        {
          "id": "38646900434",
          "owner": "14040482@N04",
          "secret": "1c821b58fb",
          "server": "4734",
          "farm": 5,
          "title": null,
          "ispublic": 1,
          "isfriend": null,
          "isfamily": null
        },
        {
          "id": "24490649547",
          "owner": "14040482@N04",
          "secret": "075528d3a9",
          "server": "4731",
          "farm": 5,
          "title": null,
          "ispublic": 1,
          "isfriend": null,
          "isfamily": null
        },
        {
          "id": "39354514661",
          "owner": "14040482@N04",
          "secret": "b2a64c480d",
          "server": "4685",
          "farm": 5,
          "title": null,
          "ispublic": 1,
          "isfriend": null,
          "isfamily": null
        },
        {
          "id": "27578145489",
          "owner": "14040482@N04",
          "secret": "6631840910",
          "server": "4692",
          "farm": 5,
          "title": null,
          "ispublic": 1,
          "isfriend": null,
          "isfamily": null
        },
        {
          "id": "39354511341",
          "owner": "14040482@N04",
          "secret": "47a89df730",
          "server": "4684",
          "farm": 5,
          "title": null,
          "ispublic": 1,
          "isfriend": null,
          "isfamily": null
        },
        {
          "id": "38477470665",
          "owner": "14040482@N04",
          "secret": "ba5624a1f2",
          "server": "4635",
          "farm": 5,
          "title": "A wedding in the village church.",
          "ispublic": 1,
          "isfriend": null,
          "isfamily": null
        },
        {
          "id": "27578137759",
          "owner": "14040482@N04",
          "secret": "85b85ed3e9",
          "server": "4638",
          "farm": 5,
          "title": null,
          "ispublic": 1,
          "isfriend": null,
          "isfamily": null
        },
        {
          "id": "38477467605",
          "owner": "14040482@N04",
          "secret": "72a8131f70",
          "server": "4725",
          "farm": 5,
          "title": null,
          "ispublic": 1,
          "isfriend": null,
          "isfamily": null
        },
        {
          "id": "25485823278",
          "owner": "14040482@N04",
          "secret": "f1c91fbd63",
          "server": "4636",
          "farm": 5,
          "title": null,
          "ispublic": 1,
          "isfriend": null,
          "isfamily": null
        },
        {
          "id": "24490634077",
          "owner": "14040482@N04",
          "secret": "03d836365d",
          "server": "4640",
          "farm": 5,
          "title": null,
          "ispublic": 1,
          "isfriend": null,
          "isfamily": null
        },
        {
          "id": "39337451561",
          "owner": "152651815@N05",
          "secret": "4c026b4558",
          "server": "4634",
          "farm": 5,
          "title": "Color enhancement test",
          "ispublic": 1,
          "isfriend": null,
          "isfamily": null
        },
        {
          "id": "27328716199",
          "owner": "63724008@N06",
          "secret": "7fdee09a99",
          "server": "4641",
          "farm": 5,
          "title": "Winter in Worthing",
          "ispublic": 1,
          "isfriend": null,
          "isfamily": null
        },
        {
          "id": "39039123691",
          "owner": "8940551@N05",
          "secret": "42c719883d",
          "server": "4576",
          "farm": 5,
          "title": "Endless",
          "ispublic": 1,
          "isfriend": null,
          "isfamily": null
        },
        {
          "id": "38087118934",
          "owner": "46758511@N00",
          "secret": "d084f5c005",
          "server": "4520",
          "farm": 5,
          "title": "Clear in the Cotswolds",
          "ispublic": 1,
          "isfriend": null,
          "isfamily": null
        },
        {
          "id": "37852930345",
          "owner": "9893763@N08",
          "secret": "738831895a",
          "server": "4546",
          "farm": 5,
          "title": "Paşadere Kemeri from the air",
          "ispublic": 1,
          "isfriend": null,
          "isfamily": null
        },
        {
          "id": "38740372111",
          "owner": "9893763@N08",
          "secret": "4ff214c1b7",
          "server": "4575",
          "farm": 5,
          "title": "Paşadere Kemeri from the air",
          "ispublic": 1,
          "isfriend": null,
          "isfamily": null
        },
        {
          "id": "38740361231",
          "owner": "9893763@N08",
          "secret": "fc947651ef",
          "server": "4565",
          "farm": 5,
          "title": "Paşadere Kemeri from the air",
          "ispublic": 1,
          "isfriend": null,
          "isfamily": null
        },
        {
          "id": "38023349304",
          "owner": "9893763@N08",
          "secret": "33c0e51804",
          "server": "4556",
          "farm": 5,
          "title": "Paşadere Kemeri from the air",
          "ispublic": 1,
          "isfriend": null,
          "isfamily": null
        },
        {
          "id": "38708916152",
          "owner": "9893763@N08",
          "secret": "3c603b5d4e",
          "server": "4582",
          "farm": 5,
          "title": "Paşadere Kemeri from the air",
          "ispublic": 1,
          "isfriend": null,
          "isfamily": null
        },
        {
          "id": "38023311914",
          "owner": "9893763@N08",
          "secret": "b99f3d5227",
          "server": "4524",
          "farm": 5,
          "title": "Uzun Kemer",
          "ispublic": 1,
          "isfriend": null,
          "isfamily": null
        },
        {
          "id": "38708881462",
          "owner": "9893763@N08",
          "secret": "ee96d2e36e",
          "server": "4549",
          "farm": 5,
          "title": "Uzun Kemer",
          "ispublic": 1,
          "isfriend": null,
          "isfamily": null
        },
        {
          "id": "38023260264",
          "owner": "9893763@N08",
          "secret": "c70c5a31b1",
          "server": "4547",
          "farm": 5,
          "title": "Uzun Kemer",
          "ispublic": 1,
          "isfriend": null,
          "isfamily": null
        },
        {
          "id": "27578287259",
          "owner": "14040482@N04",
          "secret": "606806b2ca",
          "server": "4732",
          "farm": 5,
          "title": null,
          "ispublic": 1,
          "isfriend": null,
          "isfamily": null
        },
        {
          "id": "38477578375",
          "owner": "14040482@N04",
          "secret": "49f95c0b77",
          "server": "4635",
          "farm": 5,
          "title": null,
          "ispublic": 1,
          "isfriend": null,
          "isfamily": null
        }
      ]
    },
    "stat": "ok"
  }
}
